%YAML 1.1
%TAG !u! tag:unity3d.com,2011:
--- !u!1045 &1
EditorBuildSettings:
  m_ObjectHideFlags: 0
  serializedVersion: 2
  m_Scenes:
  - enabled: 1
    path: Assets/Scenes/MultiplayerLobby.unity
    guid: 0a1398ccd34e4fb439cc00a8d20c21f5
  - enabled: 1
    path: Assets/Scenes/MainLevel.unity
    guid: 1ac714fbeafe7c549a6128ac3a2c8b86
  m_configObjects: {}
